EDI_BOND_20160219
Tablename	Actflag	Created	Changed	SecID	ISIN	BondType	DebtMarket	DebtCurrency	NominalValue	IssueDate	IssueCurrency	IssuePrice	IssueAmount	IssueAmountDate	OutstandingAmount	OutstandingAmountDate	InterestBasis	InterestRate	InterestAccrualConvention	InterestPaymentFrequency	IntCommencementDate	OddFirstCoupon	FirstCouponDate	OddLastCoupon	LastCouponDate	InterestPayDate1	InterestPayDate2	InterestPayDate3	InterestPayDate4	DomesticTaxRate	NonResidentTaxRate	FRNType	FRNIndexBenchmark	FrnMargin	FrnMinInterestRate	FrnMaxInterestRate	Rounding	Series	Class	OnTap	MaximumTapAmount	TapExpiryDate	Guaranteed	SecuredBy	SecurityCharge	Subordinate	SeniorJunior	WarrantAttached	MaturityStructure	Perpetual	MaturityDate	MaturityExtendible	Callable	Puttable	Denomination1	Denomination2	Denomination3	Denomination4	Denomination5	Denomination6	Denomination7	MinimumDenomination	DenominationMultiple	Strip	StripInterestNumber	Bondsrc	MaturityBenchmark	ConventionMethod	FrnInterestAdjFreq	InterestBusDayConv	InterestCurrency	MaturityBusDayConv	MaturityCurrency	TaxRules	VarInterestPaydate	PriceAsPercent	PayOutMode	Cumulative	MatPrice	MatPriceAsPercent	SinkingFund	GovCity	GovState	GovCntry	GovLaw	GovLawNotes	Municipal	PrivatePlacement	Syndicated	Tier	UppLow	Collateral	CoverPool	PikPay	YieldAtIssue	CoCoTrigger	CoCoAct	NonViability	Taxability	LatestApplicablePayDate	FirstAnnouncementDate	PerformanceBenchmarkISIN	InterestGraceDays	InterestGraceDayConvention	MatGraceDays	MatGraceDayConvention	Notes
EDI_ENDOFFILE
