EDI_RDNOM_20160219
TableName	Actflag	Created	Changed	RdnomID	SecID	ISIN	EffectiveDate	OldDenomination1	OldDenomination2	OldDenomination3	OldDenomination4	OldDenomination5	OldDenomination6	OldDenomination7	OldMinimumDenomination	OldDenominationMultiple	NewDenomination1	NewDenomination2	NewDenomination3	NewDenomination4	NewDenomination5	NewDenomination6	NewDenomination7	NewMinimumDenomination	NewDenominationMultiple	Notes
EDI_ENDOFFILE
